<?xml version="1.0" encoding="utf-8"?>
<svg viewBox="204.917 145.405 769.131 769.131" xmlns="http://www.w3.org/2000/svg">
  <g transform="matrix(0.281465, 0, 0, -0.281465, -3613.831111, 4143.052572)" id="g190">
    <path id="path192" style="fill:#2f3031;fill-opacity:1;fill-rule:nonzero;stroke:none" d="m 16300,12836.7 c 0,-754.6 -611.7,-1366.3 -1366.3,-1366.3 -754.6,0 -1366.3,611.7 -1366.3,1366.3 0,754.6 611.7,1366.3 1366.3,1366.3 754.6,0 1366.3,-611.7 1366.3,-1366.3"/>
  </g>
  <g transform="matrix(0.278168, 0, 0, -0.278168, -3613.831111, 4143.052572)" id="g194">
    <path id="path196" style="fill:#ffffff;fill-opacity:1;fill-rule:nonzero;stroke:none" d="m 15110.7,14178.2 c -656.9,0 -1189.4,-532.5 -1189.4,-1189.3 0,-223 61.4,-431.7 168.2,-610 h 23.5 c 268.3,72.8 621,117.1 1007.4,117.1 386.5,0 739.1,-44.3 1007.4,-117.1 h 4.1 c 106.7,178.3 168.1,387 168.1,610 0,656.8 -532.5,1189.3 -1189.3,1189.3"/>
  </g>
  <g transform="matrix(0.25192, 0, 0, -0.25192, -3613.831111, 4143.052572)" id="g198">
    <path id="path200" style="fill:#ffffff;fill-opacity:1;fill-rule:nonzero;stroke:none" d="m 16068.2,13507.8 h 56.1 l 60.5,-162.8 60.4,162.8 h 54.8 l -93.4,-232.8 h -44.9 l -93.5,232.8"/>
  </g>
  <g transform="matrix(0.255192, 0, 0, -0.255192, -3613.831111, 4143.052572)" id="g202">
    <path id="path204" style="fill:#ffffff;fill-opacity:1;fill-rule:nonzero;stroke:none" d="m 16126.3,13334.6 h 172.1 v -44.7 h -122.3 v -46.3 h 107.6 v -44.6 h -107.6 v -48 h 123.9 v -44.6 h -173.7 v 228.2"/>
  </g>
  <g transform="matrix(0.259137, 0, 0, -0.259137, -3613.831111, 4143.052572)" id="g206">
    <path id="path208" style="fill:#ffffff;fill-opacity:1;fill-rule:nonzero;stroke:none" d="m 16085.9,13018.6 v 0.6 c 0,63.9 49.7,116.2 117.8,116.2 40.4,0 64.8,-10.9 88.3,-30.8 l -31.2,-37.6 c -17.3,14.5 -32.7,22.8 -58.7,22.8 -36,0 -64.5,-31.8 -64.5,-70 v -0.6 c 0,-41.1 28.2,-71.3 68,-71.3 18,0 34,4.5 46.5,13.5 v 32.1 h -49.7 v 42.7 h 97.6 v -97.6 c -23.2,-19.6 -54.9,-35.6 -96,-35.6 -70,0 -118.1,49.1 -118.1,115.6"/>
  </g>
  <g transform="matrix(0.263375, 0, 0, -0.263375, -3613.831111, 4143.052572)" id="g210">
    <path id="path212" style="fill:#ffffff;fill-opacity:1;fill-rule:nonzero;stroke:none" d="m 16211.6,12791.8 -29.4,71.7 -29.4,-71.7 z m -51.2,130.1 h 44.8 l 94.8,-222.7 h -50.9 l -20.2,49.6 h -93.5 l -20.2,-49.6 h -49.6 l 94.8,222.7"/>
  </g>
  <g transform="matrix(0.2671, 0, 0, -0.2671, -3613.831111, 4143.052572)" id="g214">
    <path id="path216" style="fill:#ffffff;fill-opacity:1;fill-rule:nonzero;stroke:none" d="m 16106.3,12740.1 h 44.2 l 102.2,-134.2 v 134.2 h 47.3 v -218 h -40.8 l -105.6,138.6 v -138.6 h -47.3 v 218"/>
  </g>
  <g transform="matrix(0.25812, 0, 0, -0.25812, -3613.831111, 4143.052572)" id="g218">
    <path id="path220" style="fill:#2f3031;fill-opacity:1;fill-rule:nonzero;stroke:none" d="m 16223.8,13636.6 c 37,202.1 76.2,936.9 -694.8,1165.8 l 694.8,-1165.8"/>
  </g>
  <g transform="matrix(0.256268, 0, 0, -0.256268, -3613.831111, 4143.052572)" id="g222">
    <path id="path224" style="fill:#2f3031;fill-opacity:1;fill-rule:nonzero;stroke:none" d="m 15635.9,14911 c -0.3,0 -0.7,0.1 -1,0.2 0,0 -296.5,-1037.5 665.1,-1223.5 l -664.1,1223.3"/>
  </g>
  <g transform="matrix(0.270037, 0, 0, -0.270037, -3613.831111, 4143.052572)" id="g226">
    <path id="path228" style="fill:#2f3031;fill-opacity:1;fill-rule:nonzero;stroke:none" d="m 15555.4,13085.2 c -27.7,202.8 -33.3,936 744.6,1128.9 l -744.6,-1128.9"/>
  </g>
  <g transform="matrix(0.27422, 0, 0, -0.27422, -3613.831111, 4143.052572)" id="g230">
    <path id="path232" style="fill:#2f3031;fill-opacity:1;fill-rule:nonzero;stroke:none" d="m 16056.5,13998.6 c 0.4,0 0.7,0.1 1,0.2 0,0 242.5,-1022.9 -701.6,-1161.1 l 700.6,1160.9"/>
  </g>
</svg>